<?xml version="1.0" encoding="UTF-8" standalone="no"?>
<!-- Created with Inkscape (http://www.inkscape.org/) -->

<svg
   width="128"
   height="128"
   viewBox="0 0 33.866666 33.866668"
   version="1.1"
   id="svg5"
   inkscape:version="1.1.1 (3bf5ae0d25, 2021-09-20)"
   sodipodi:docname="logo.svg"
   inkscape:export-filename="/home/yarflam/Git/express-honeypot/logo.png"
   inkscape:export-xdpi="96"
   inkscape:export-ydpi="96"
   xmlns:inkscape="http://www.inkscape.org/namespaces/inkscape"
   xmlns:sodipodi="http://sodipodi.sourceforge.net/DTD/sodipodi-0.dtd"
   xmlns="http://www.w3.org/2000/svg"
   xmlns:svg="http://www.w3.org/2000/svg">
  <sodipodi:namedview
     id="namedview7"
     pagecolor="#ffffff"
     bordercolor="#666666"
     borderopacity="1.0"
     inkscape:pageshadow="2"
     inkscape:pageopacity="0.0"
     inkscape:pagecheckerboard="0"
     inkscape:document-units="mm"
     showgrid="false"
     inkscape:snap-global="false"
     units="px"
     inkscape:zoom="4.3994184"
     inkscape:cx="28.753801"
     inkscape:cy="71.032116"
     inkscape:window-width="1920"
     inkscape:window-height="1013"
     inkscape:window-x="0"
     inkscape:window-y="30"
     inkscape:window-maximized="1"
     inkscape:current-layer="layer1" />
  <defs
     id="defs2" />
  <g
     inkscape:label="Calque 1"
     inkscape:groupmode="layer"
     id="layer1">
    <g
       id="g10509"
       transform="matrix(0.19865,0,0,0.19865,-3.6858682,-6.6000691)">
      <g
         id="g5616"
         transform="translate(-3.0610881,-53.455471)">
        <path
           id="rect868"
           style="fill:#faaf1d;stroke-width:1;stroke-linejoin:round;stroke-miterlimit:4;stroke-dasharray:none"
           d="m 92.747989,94.21774 c -13.636628,0 -24.614518,4.627893 -24.614518,18.26452 v 3.16931 c -20.479729,-1.32218 -32.944784,57.1209 -19.804475,91.48124 17.19309,33.7981 26.987045,44.42706 58.528724,42.21396 31.54168,2.2131 41.33563,-8.41586 58.52873,-42.21396 13.14031,-34.36034 0.67525,-92.8034 -19.80448,-91.48124 v -3.16931 c 0,-13.636629 -10.97789,-18.26452 -24.61452,-18.26452 h -14.10973 z" />
        <path
           id="rect868-4"
           style="fill:#aa7204;fill-opacity:1;stroke-width:1;stroke-linejoin:round;stroke-miterlimit:4;stroke-dasharray:none"
           d="m 92.747992,94.21774 c -13.636628,0 -24.614518,4.627893 -24.614518,18.26452 v 3.16931 h 77.448496 v -3.16931 c 0,-13.636629 -10.97789,-18.26452 -24.61452,-18.26452 h -14.10973 z"
           sodipodi:nodetypes="ssccsscs" />
      </g>
      <g
         id="g9832"
         transform="matrix(1.2430475,0,0,1.2430475,-34.792776,-26.249946)">
        <ellipse
           style="fill:#5a3f00;fill-opacity:1;stroke-width:0.860676;stroke-linejoin:round;stroke-miterlimit:4;stroke-dasharray:none"
           id="path9690-3"
           cx="156.36053"
           cy="-27.745354"
           rx="7.7001495"
           ry="19.960701"
           transform="matrix(0.64715742,0.76235639,-0.76126319,0.64844302,0,0)" />
        <g
           id="g9813">
          <g
             id="g8724"
             transform="matrix(0.72117456,-1.4677459,1.4677459,0.72117456,-82.415927,68.341086)">
            <path
               id="path5640"
               style="fill:#aa7204;fill-opacity:1;stroke-width:3.77953;stroke-linejoin:round;stroke-miterlimit:4;stroke-dasharray:none"
               d="M 92.773438,505.91406 H 52.035156 a 39.371327,64.74941 0 0 0 20.369141,9.47852 39.371327,64.74941 0 0 0 20.369141,-9.47852 z"
               transform="scale(0.26458333)" />
            <path
               id="path6027"
               style="fill:#e99d06;fill-opacity:1;stroke-width:3.77953;stroke-linejoin:round;stroke-miterlimit:4;stroke-dasharray:none"
               d="M 99.998047,496.66211 H 44.808594 a 39.371327,64.74941 0 0 0 7.226562,9.25195 h 40.738282 a 39.371327,64.74941 0 0 0 7.224609,-9.25195 z"
               transform="scale(0.26458333)" />
            <path
               id="path6025"
               style="fill:#aa7204;fill-opacity:1;stroke-width:3.77953;stroke-linejoin:round;stroke-miterlimit:4;stroke-dasharray:none"
               d="M 104.26953,488.54883 H 40.537109 a 39.371327,64.74941 0 0 0 4.271485,8.11328 h 55.189453 a 39.371327,64.74941 0 0 0 4.271483,-8.11328 z"
               transform="scale(0.26458333)" />
            <path
               id="path6023"
               style="fill:#e99d06;fill-opacity:1;stroke-width:3.77953;stroke-linejoin:round;stroke-miterlimit:4;stroke-dasharray:none"
               d="M 107.6582,479.29688 H 37.150391 a 39.371327,64.74941 0 0 0 3.386718,9.25195 h 63.732421 a 39.371327,64.74941 0 0 0 3.38867,-9.25195 z"
               transform="scale(0.26458333)" />
            <path
               id="path6021"
               style="fill:#aa7204;fill-opacity:1;stroke-width:3.77953;stroke-linejoin:round;stroke-miterlimit:4;stroke-dasharray:none"
               d="M 110.62109,466.18945 H 34.185547 a 39.371327,64.74941 0 0 0 2.964844,13.10743 H 107.6582 a 39.371327,64.74941 0 0 0 2.96289,-13.10743 z"
               transform="scale(0.26458333)" />
            <path
               id="path6019"
               style="fill:#e99d06;fill-opacity:1;stroke-width:3.77953;stroke-linejoin:round;stroke-miterlimit:4;stroke-dasharray:none"
               d="m 111.54297,456.95117 c -0.0884,-0.005 -0.17597,-0.0137 -0.26563,-0.0137 H 33.265625 a 39.371327,64.74941 0 0 0 0.919922,9.25195 h 76.435543 a 39.371327,64.74941 0 0 0 0.92188,-9.23828 z"
               transform="scale(0.26458333)" />
            <path
               id="path6017"
               style="fill:#aa7204;fill-opacity:1;stroke-width:3.77953;stroke-linejoin:round;stroke-miterlimit:4;stroke-dasharray:none"
               d="m 111.47266,442.64844 c -0.0289,0.006 -0.0569,0.0156 -0.0859,0.0215 -0.15083,0.0307 -0.3031,0.0546 -0.45899,0.0703 -0.15588,0.0158 -0.31442,0.0234 -0.47461,0.0234 H 33.328125 a 39.371327,64.74941 0 0 0 -0.294922,7.87891 39.371327,64.74941 0 0 0 0.232422,6.29492 h 78.011715 c 0.0897,0 0.17726,0.009 0.26563,0.0137 a 39.371327,64.74941 0 0 0 0.23242,-6.30859 39.371327,64.74941 0 0 0 -0.30273,-7.99414 z"
               transform="scale(0.26458333)" />
            <path
               id="path6015"
               style="fill:#e99d06;fill-opacity:1;stroke-width:3.77953;stroke-linejoin:round;stroke-miterlimit:4;stroke-dasharray:none"
               d="M 110.36328,433.51172 H 34.486328 a 39.371327,64.74941 0 0 0 -1.158203,9.25195 h 77.124995 c 0.16019,0 0.31873,-0.008 0.47461,-0.0234 0.15589,-0.0157 0.30816,-0.0396 0.45899,-0.0703 0.0291,-0.006 0.0571,-0.015 0.0859,-0.0215 a 39.371327,64.74941 0 0 0 -1.10938,-9.13672 z"
               transform="scale(0.26458333)" />
            <path
               id="path6013"
               style="fill:#aa7204;fill-opacity:1;stroke-width:3.77953;stroke-linejoin:round;stroke-miterlimit:4;stroke-dasharray:none"
               d="M 107.52148,421.39258 H 37.3125 a 39.371327,64.74941 0 0 0 -2.826172,12.11914 h 75.876952 a 39.371327,64.74941 0 0 0 -2.8418,-12.11914 z"
               transform="scale(0.26458333)" />
            <path
               id="path6011"
               style="fill:#e99d06;fill-opacity:1;stroke-width:3.77953;stroke-linejoin:round;stroke-miterlimit:4;stroke-dasharray:none"
               d="M 104.04688,412.14062 H 40.822266 a 39.371327,64.74941 0 0 0 -3.509766,9.25196 h 70.20898 a 39.371327,64.74941 0 0 0 -3.4746,-9.25196 z"
               transform="scale(0.26458333)" />
            <path
               id="path6009"
               style="fill:#aa7204;fill-opacity:1;stroke-width:3.77953;stroke-linejoin:round;stroke-miterlimit:4;stroke-dasharray:none"
               d="M 72.404297,385.89258 A 39.371327,64.74941 0 0 0 40.822266,412.14062 H 104.04688 A 39.371327,64.74941 0 0 0 72.404297,385.89258 Z"
               transform="scale(0.26458333)" />
          </g>
          <path
             id="path8748"
             style="fill:#5a3f00;fill-opacity:1;stroke-linejoin:round"
             d="m 90.79799,105.54334 a 4.0224957,4.0224957 0 0 1 -4.022495,4.0225 4.0224957,4.0224957 0 0 1 -4.022496,-4.0225 4.0224957,4.0224957 0 0 1 4.022496,-4.02249 4.0224957,4.0224957 0 0 1 4.022495,4.02249 z" />
          <path
             id="path8748-0"
             style="fill:#5a3f00;fill-opacity:1;stroke-linejoin:round"
             d="m 95.143636,112.67439 a 4.0224957,4.0224957 0 0 1 -4.022495,4.0225 4.0224957,4.0224957 0 0 1 -4.022496,-4.0225 4.0224957,4.0224957 0 0 1 4.022496,-4.02249 4.0224957,4.0224957 0 0 1 4.022495,4.02249 z" />
        </g>
        <ellipse
           style="fill:#5a3f00;fill-opacity:1;stroke-width:1;stroke-linejoin:round;stroke-miterlimit:4;stroke-dasharray:none"
           id="path9690"
           cx="146.92604"
           cy="-95.537537"
           rx="8.9331884"
           ry="23.226788"
           transform="rotate(75.350241)" />
      </g>
      <rect
         style="fill:#5a3f00;fill-opacity:1;stroke-width:1;stroke-linejoin:round;stroke-miterlimit:4;stroke-dasharray:none"
         id="rect9856"
         width="27.978157"
         height="27.978157"
         x="104.27477"
         y="132.87242"
         ry="5.2405925"
         transform="rotate(10.106286)" />
    </g>
    <g
       id="g4"
       transform="matrix(0.01697632,0.00299546,-0.00299546,0.01697632,12.58354,23.407039)">
      <path
         d="m 128,288.46377 c -3.97516,0 -7.6853,-1.06004 -11.13044,-2.91511 L 81.623188,264.61284 c -5.300208,-2.91512 -2.650103,-3.97516 -1.060042,-4.50518 7.15528,-2.38509 8.480331,-2.91511 15.900623,-7.15528 0.795029,-0.53002 1.855071,-0.26501 2.650103,0.26501 l 27.031058,16.16563 c 1.06004,0.53002 2.38509,0.53002 3.18012,0 l 105.73913,-61.21739 c 1.06004,-0.53002 1.59006,-1.59006 1.59006,-2.91511 V 83.080747 c 0,-1.325054 -0.53002,-2.385094 -1.59006,-2.915115 L 129.32505,19.213251 c -1.06004,-0.530021 -2.38509,-0.530021 -3.18012,0 L 20.405795,80.165632 c -1.06004,0.530021 -1.59006,1.855072 -1.59006,2.915115 V 205.25052 c 0,1.06004 0.53002,2.38509 1.59006,2.91511 l 28.88613,16.69566 c 15.635611,7.9503 25.440995,-1.32506 25.440995,-10.60042 V 93.681159 c 0,-1.590061 1.325051,-3.180123 3.180123,-3.180123 h 13.515529 c 1.590062,0 3.180123,1.325051 3.180123,3.180123 V 214.26087 c 0,20.93582 -11.395444,33.12629 -31.271221,33.12629 -6.095238,0 -10.865424,0 -24.380953,-6.62525 L 11.130435,224.86129 C 4.2401658,220.88613 0,213.46584 0,205.51553 V 83.345756 C 0,75.395447 4.2401658,67.975155 11.130435,64.000001 L 116.86956,2.7826075 c 6.62526,-3.71014334 15.63562,-3.71014334 22.26088,0 L 244.86956,64.000001 C 251.75983,67.975155 256,75.395447 256,83.345756 V 205.51553 c 0,7.95031 -4.24017,15.3706 -11.13044,19.34576 l -105.73912,61.21739 c -3.44514,1.59006 -7.4203,2.38509 -11.13044,2.38509 z m 32.59627,-84.00828 c -46.37681,0 -55.91718,-21.20083 -55.91718,-39.22154 0,-1.59006 1.32505,-3.18012 3.18012,-3.18012 h 13.78054 c 1.59006,0 2.91511,1.06004 2.91511,2.6501 2.12009,14.04555 8.21533,20.93582 36.30642,20.93582 22.26087,0 31.80125,-5.03519 31.80125,-16.96066 0,-6.89027 -2.65011,-11.92547 -37.36647,-15.3706 -28.88612,-2.91512 -46.90682,-9.27536 -46.90682,-32.33126 0,-21.465843 18.0207,-34.18634 48.23188,-34.18634 33.92132,0 50.61697,11.660457 52.73706,37.10145 0,0.79503 -0.26501,1.59006 -0.79503,2.38509 -0.53002,0.53002 -1.32506,1.06004 -2.12009,1.06004 h -13.78053 c -1.32506,0 -2.65011,-1.06004 -2.91512,-2.38509 -3.18012,-14.57557 -11.39544,-19.34576 -33.12629,-19.34576 -24.38096,0 -27.29607,8.48034 -27.29607,14.84058 0,7.68531 3.44514,10.0704 36.30642,14.31057 32.59627,4.24016 47.96687,10.3354 47.96687,33.12629 -0.26501,23.32091 -19.34575,36.57143 -53.00207,36.57143 z"
         fill="#539e43"
         id="path2" />
    </g>
  </g>
</svg>
